<?xml version="1.0" encoding="UTF-8"?>
<session version="1.0">
<refactoring accessors="true" comment="Delete element from project &apos;CSCI6370_Database_SU2014_Project_3&apos;&#x0D;&#x0A;- Original project: &apos;CSCI6370_Database_SU2014_Project_3&apos;&#x0D;&#x0A;- Original element: &apos;csci6370_Project3.Transient.java&apos;" description="Delete element" element1="/src&lt;csci6370_Project3{Transient.java" elements="1" flags="589830" id="org.eclipse.jdt.ui.delete" resources="0" stamp="1404014451389" subPackages="false" version="1.0"/>
</session>