2014-07-30 11:23:43.739 [Worker-4] INFO    com.objectaid.uml.model.manage.DiagramManager getFactories: com.objectaid.uml.diagramFactories[ucls]: com.objectaid.uml.cls.model.ClassDiagramFactory@4ce05024
2014-07-30 11:23:43.754 [Worker-4] INFO    com.objectaid.uml.model.manage.DiagramManager getFactories: com.objectaid.uml.diagramFactories[useq]: com.objectaid.uml.seq.model.SequenceDiagramFactory@6940bdd
2014-07-30 11:23:44.702 [pool-2-thread-1] WARNING com.objectaid.uml.util.EclipseHelper loadClass: cannot find com.objectaid.uml.addon.doc.TextLink in [], no license for [com.objectaid.uml.addon]
2014-07-30 11:23:44.704 [pool-2-thread-1] WARNING com.objectaid.uml.util.EclipseHelper loadClass: cannot find com.objectaid.uml.addon.doc.TextLinkEditPart in [], no license for [com.objectaid.uml.addon]
2014-07-30 11:23:44.705 [pool-2-thread-1] WARNING com.objectaid.uml.util.EclipseHelper loadClass: cannot find com.objectaid.uml.addon.doc.PTextLink in [], no license for [com.objectaid.uml.addon]
2014-07-30 11:23:44.706 [pool-2-thread-1] WARNING com.objectaid.uml.util.EclipseHelper loadClass: cannot find com.objectaid.uml.model.diagram.ConnectionEnd in [], no license for [com.objectaid.uml.addon]
2014-07-30 11:23:44.706 [pool-2-thread-1] WARNING com.objectaid.uml.util.EclipseHelper loadClass: cannot find com.objectaid.uml.model.persistence.PersistedConnectionEnd in [], no license for [com.objectaid.uml.addon]
2014-07-30 11:23:44.707 [pool-2-thread-1] WARNING com.objectaid.uml.util.EclipseHelper loadClass: cannot find com.objectaid.uml.addon.doc.TextNodeDefinition in [com.objectaid.uml.cls], no license for [com.objectaid.uml.addon]
2014-07-30 11:23:44.799 [pool-2-thread-1] INFO    com.objectaid.uml.model.manage.LanguageElementManager getLanguageElementFactories: com.objectaid.uml.languageElementFactories: com.objectaid.uml.java.JavaElementFactory
2014-07-30 11:23:44.827 [pool-2-thread-1] INFO    com.objectaid.uml.util.extend.ExecutableExtensionManager loadExtensions: found com.objectaid.uml.renderFormats="com.objectaid.uml.render.RasterRenderFormat" class="com.objectaid.uml.render.RasterRenderFormat" name="PNG" extension="png" antialias="true" format="5" 
2014-07-30 11:23:44.829 [pool-2-thread-1] INFO    com.objectaid.uml.util.extend.ExecutableExtensionManager loadExtensions: found com.objectaid.uml.renderFormats="com.objectaid.uml.render.RasterRenderFormat" class="com.objectaid.uml.render.RasterRenderFormat" name="JPEG" extension="jpg" antialias="true" format="4" 
2014-07-30 11:23:44.830 [pool-2-thread-1] INFO    com.objectaid.uml.util.extend.ExecutableExtensionManager loadExtensions: found com.objectaid.uml.renderFormats="com.objectaid.uml.render.IndexedRasterRenderFormat" class="com.objectaid.uml.render.IndexedRasterRenderFormat" name="GIF" extension="gif" antialias="false" format="2" 
2014-07-30 11:23:44.831 [pool-2-thread-1] WARNING com.objectaid.uml.util.EclipseHelper loadClass: cannot find com.objectaid.uml.addon.render.SVGRenderFormat in [], no license for [com.objectaid.uml.addon]
2014-07-30 11:23:44.831 [pool-2-thread-1] INFO    com.objectaid.uml.util.extend.ExecutableExtensionManager loadExtensions: found com.objectaid.uml.renderFormats='com.objectaid.uml.addon.render.SVGRenderFormat' but cannot load class
2014-07-30 11:23:44.831 [pool-2-thread-1] WARNING com.objectaid.uml.util.EclipseHelper loadClass: cannot find com.objectaid.uml.addon.render.PDFRenderFormat in [], no license for [com.objectaid.uml.addon]
2014-07-30 11:23:44.831 [pool-2-thread-1] INFO    com.objectaid.uml.util.extend.ExecutableExtensionManager loadExtensions: found com.objectaid.uml.renderFormats='com.objectaid.uml.addon.render.PDFRenderFormat' but cannot load class
2014-07-30 11:23:44.853 [pool-2-thread-1] WARNING com.objectaid.uml.model.definition.ConnectionDefinition connectEnd: Cannot find ConnectedElement for refId=1 in /CrimeTracker_localDB/CrimeTracker_package_diagram.ucls
2014-07-30 11:23:44.853 [pool-2-thread-1] WARNING com.objectaid.uml.model.definition.ConnectionDefinition connectEnd: Cannot find ConnectedElement for refId=4 in /CrimeTracker_localDB/CrimeTracker_package_diagram.ucls
2014-07-30 11:23:44.854 [pool-2-thread-1] WARNING com.objectaid.uml.model.definition.ConnectionDefinition connectEnd: Cannot find ConnectedElement for refId=1 in /CrimeTracker_localDB/CrimeTracker_package_diagram.ucls
2014-07-30 11:23:44.854 [pool-2-thread-1] WARNING com.objectaid.uml.model.definition.ConnectionDefinition connectEnd: Cannot find ConnectedElement for refId=4 in /CrimeTracker_localDB/CrimeTracker_package_diagram.ucls
2014-07-30 11:23:44.862 [pool-2-thread-2] WARNING com.objectaid.uml.model.definition.ConnectionDefinition connectEnd: Cannot find ConnectedElement for refId=1 in /CrimeTracker_localDB/CrimeTracker_class_diagram.ucls
2014-07-30 11:23:44.863 [pool-2-thread-2] WARNING com.objectaid.uml.model.definition.ConnectionDefinition connectEnd: Cannot find ConnectedElement for refId=3 in /CrimeTracker_localDB/CrimeTracker_class_diagram.ucls
2014-07-30 11:23:44.863 [pool-2-thread-2] WARNING com.objectaid.uml.model.definition.ConnectionDefinition connectEnd: Cannot find ConnectedElement for refId=4 in /CrimeTracker_localDB/CrimeTracker_class_diagram.ucls
2014-07-30 11:23:44.864 [pool-2-thread-2] WARNING com.objectaid.uml.model.definition.ConnectionDefinition connectEnd: Cannot find ConnectedElement for refId=11 in /CrimeTracker_localDB/CrimeTracker_class_diagram.ucls
2014-07-30 11:23:44.864 [pool-2-thread-2] WARNING com.objectaid.uml.model.definition.ConnectionDefinition connectEnd: Cannot find ConnectedElement for refId=11 in /CrimeTracker_localDB/CrimeTracker_class_diagram.ucls
2014-07-30 11:23:44.864 [pool-2-thread-2] WARNING com.objectaid.uml.model.definition.ConnectionDefinition connectEnd: Cannot find ConnectedElement for refId=4 in /CrimeTracker_localDB/CrimeTracker_class_diagram.ucls
2014-07-30 11:23:44.865 [pool-2-thread-2] WARNING com.objectaid.uml.model.definition.ConnectionDefinition connectEnd: Cannot find ConnectedElement for refId=13 in /CrimeTracker_localDB/CrimeTracker_class_diagram.ucls
2014-07-30 11:23:44.865 [pool-2-thread-2] WARNING com.objectaid.uml.model.definition.ConnectionDefinition connectEnd: Cannot find ConnectedElement for refId=1 in /CrimeTracker_localDB/CrimeTracker_class_diagram.ucls
2014-07-30 11:23:44.865 [pool-2-thread-2] WARNING com.objectaid.uml.model.definition.ConnectionDefinition connectEnd: Cannot find ConnectedElement for refId=11 in /CrimeTracker_localDB/CrimeTracker_class_diagram.ucls
2014-07-30 11:23:44.865 [pool-2-thread-2] WARNING com.objectaid.uml.model.definition.ConnectionDefinition connectEnd: Cannot find ConnectedElement for refId=4 in /CrimeTracker_localDB/CrimeTracker_class_diagram.ucls
2014-07-30 11:23:44.866 [pool-2-thread-2] WARNING com.objectaid.uml.model.definition.ConnectionDefinition connectEnd: Cannot find ConnectedElement for refId=11 in /CrimeTracker_localDB/CrimeTracker_class_diagram.ucls
2014-07-30 11:23:44.866 [pool-2-thread-2] WARNING com.objectaid.uml.model.definition.ConnectionDefinition connectEnd: Cannot find ConnectedElement for refId=12 in /CrimeTracker_localDB/CrimeTracker_class_diagram.ucls
2014-07-30 11:23:44.866 [pool-2-thread-2] WARNING com.objectaid.uml.model.definition.ConnectionDefinition connectEnd: Cannot find ConnectedElement for refId=13 in /CrimeTracker_localDB/CrimeTracker_class_diagram.ucls
2014-07-30 11:23:44.867 [pool-2-thread-2] WARNING com.objectaid.uml.model.definition.ConnectionDefinition connectEnd: Cannot find ConnectedElement for refId=4 in /CrimeTracker_localDB/CrimeTracker_class_diagram.ucls
2014-07-30 11:23:44.867 [pool-2-thread-2] WARNING com.objectaid.uml.model.definition.ConnectionDefinition connectEnd: Cannot find ConnectedElement for refId=2 in /CrimeTracker_localDB/CrimeTracker_class_diagram.ucls
2014-07-30 11:23:44.867 [pool-2-thread-2] WARNING com.objectaid.uml.model.definition.ConnectionDefinition connectEnd: Cannot find ConnectedElement for refId=1 in /CrimeTracker_localDB/CrimeTracker_class_diagram.ucls
2014-07-30 11:23:44.867 [pool-2-thread-2] WARNING com.objectaid.uml.model.definition.ConnectionDefinition connectEnd: Cannot find ConnectedElement for refId=1 in /CrimeTracker_localDB/CrimeTracker_class_diagram.ucls
2014-07-30 11:23:44.868 [pool-2-thread-2] WARNING com.objectaid.uml.model.definition.ConnectionDefinition connectEnd: Cannot find ConnectedElement for refId=10 in /CrimeTracker_localDB/CrimeTracker_class_diagram.ucls
2014-07-30 11:23:44.868 [pool-2-thread-2] WARNING com.objectaid.uml.model.definition.ConnectionDefinition connectEnd: Cannot find ConnectedElement for refId=12 in /CrimeTracker_localDB/CrimeTracker_class_diagram.ucls
2014-07-30 11:23:44.868 [pool-2-thread-2] WARNING com.objectaid.uml.model.definition.ConnectionDefinition connectEnd: Cannot find ConnectedElement for refId=13 in /CrimeTracker_localDB/CrimeTracker_class_diagram.ucls
2014-07-30 11:23:44.869 [pool-2-thread-2] WARNING com.objectaid.uml.model.definition.ConnectionDefinition connectEnd: Cannot find ConnectedElement for refId=2 in /CrimeTracker_localDB/CrimeTracker_class_diagram.ucls
2014-07-30 11:23:44.869 [pool-2-thread-2] WARNING com.objectaid.uml.model.definition.ConnectionDefinition connectEnd: Cannot find ConnectedElement for refId=13 in /CrimeTracker_localDB/CrimeTracker_class_diagram.ucls
