INDEX VERSION 1.3+/Users/jmoore/Desktop/GitHub_Projects/DBProjects/.metadata/.plugins/org.eclipse.wst.jsdt.core/indexes
4187227040.index
32133281.index
3908643602.index
3661765487.index
1624663675.index
2492405106.index
